1.000000000000000021e-02
-2.000000000000000042e-02
-2.000000000000000042e-02
2.000000000000000042e-02
1.000000000000000021e-02
1.900000000000000022e-01
1.000000000000000021e-02
1.000000000000000056e-01
1.000000000000000021e-02
0.000000000000000000e+00
0.000000000000000000e+00
-2.999999999999999889e-02
0.000000000000000000e+00
0.000000000000000000e+00
1.000000000000000021e-02
1.000000000000000021e-02
