9.696407557399397414e-02
-6.111223941741612820e-02
-7.607443852892695202e-02
-1.502388595340900523e-02
7.818996579038794970e-02
8.591557616077452608e-02
-4.760985310590442471e-02
-1.229474790941990914e-02
8.193590432605096785e-02
1.680024303789998119e-02
-4.558746187558988805e-02
4.275882186692553377e-02
2.816788817258467081e-02
-8.784084859638385812e-02
-6.518219023763124897e-02
-6.504867635518292446e-02
