-3.305898552979061655e+00
3.661329995072973631e+00
-1.902988993151976338e+00
-1.676488581078108275e+00
3.867022854117683650e+00
7.068110487013532506e-01
-2.572927039530288340e+00
2.726459050765691394e+00
4.983850792527928064e+00
-3.876835250273826805e+00
-1.891789218884008861e+00
4.479129117275679306e+00
1.533581065431896207e+00
-1.300289626434913082e+00
