-2.331846147053937557e-01
8.211413915832546095e-01
6.249573814180848785e-01
3.063401346856167162e-01
-8.588020903698789787e-01
-2.179168881769657506e-01
8.939985296202728193e-01
-7.892757193861732468e-02
-1.554849277087448911e-01
-5.605727222084881944e-01
-6.038078475807380219e-01
-9.842180577027359600e-01
