-1.874654096839623030e-02
-1.654155958827963069e-01
8.363435076550986835e-01
-2.422562641884207224e-02
7.532089047721060027e-01
-5.091918960725068111e-01
-6.474290752599047849e-01
4.802834331891570052e-02
-6.654984240035544119e-01
2.702018597818758305e-01
-7.004957173380004232e-01
-9.911726496884309956e-01
