7.171754182171435898e-02
3.141110249327316861e-02
-9.196619244411906313e-02
-7.940597151028894185e-02
1.895489412419645858e-02
4.029556462077416024e-02
-1.903603542499647527e-02
3.403779321881200692e-02
-5.291987768135089643e-02
-9.172758541838479940e-03
5.693401005910672663e-02
-3.361491443806477464e-02
-1.046762132435428427e-01
-8.051366652209963892e-02
9.192058668140770661e-02
-6.238887398480957858e-02
9.545849009129256380e-02
