-3.29860994
3.24890251
-3.2035909
2.45855916
0.30610781
-1.21155544
-2.60133151 
4.07561154  
0.18223051  
2.50195319 
-3.01844567  
1.92557794
0.26267527 
-2.05576202  
2.98008233  
0.2133419  
-3.51973911 
-0.21848827
2.75480641  
1.99586886 
-0.71847293 
-1.3474498   
6.27463307 
-2.30019508
-1.35290886