3.430818985166624202e+00
3.030401501087983007e+00
1.854530569069861023e+00
2.160167656296961169e+00
4.972174690073066117e+00
-4.869844765056040359e+00
-1.124271952907070826e+00
3.482520058568333354e+00
4.254348491203801430e+00
-1.890092308736813997e+00
4.698217009785121689e+00
-4.917517078648195650e+00
3.898620548827198107e+00
2.470242005728216839e+00
-1.216790243357628309e+00
-1.225351682881483661e+00
-2.427819582986165958e+00
