1.169596729813035529e-02
-7.808611146796982927e-02
-8.366480413046029074e-02
-9.578834850695108760e-02
9.785308080922727747e-02
9.291368313589351557e-02
-7.926455688921361931e-02
4.271818392798981678e-02
-7.111091356217861571e-03
9.742885469375625607e-02
-3.364115228224251464e-02
6.363876435260680878e-03
-2.913843069007479580e-03
-8.347491351343556965e-02
-2.417048348418418535e-02
-8.904493519743508778e-02
1.213902294690757944e-02
8.113047359518147858e-03
1.069118778182179264e-02
-6.181900890763427150e-03
3.619018516191280233e-02
-7.436076621578956158e-02
5.738679331478815926e-02
-3.916634051896464297e-02
-6.185861752567718697e-02
-9.404889516137525385e-02
6.210078373023517062e-02
-8.615538298154670760e-02
7.511627487372624090e-02
3.233145000874322952e-03
-4.058025037887894038e-02
-7.075561605160779477e-02
1.146753366262261153e-02
-1.927434885884696247e-02
-9.127193650222570342e-02
